<?xml version="1.0" standalone="no"?>
<!DOCTYPE svg PUBLIC "-//W3C//DTD SVG 1.1//EN" "http://www.w3.org/Graphics/SVG/1.1/DTD/svg11.dtd" >
<svg xmlns="http://www.w3.org/2000/svg">
<metadata>Generated by IcoMoon</metadata>
<defs>
<font id="cmsms-filepicker" horiz-adv-x="512">
<font-face units-per-em="512" ascent="480" descent="-32" />
<missing-glyph horiz-adv-x="512" />
<glyph unicode="&#x20;" d="" horiz-adv-x="256" />
<glyph unicode="&#xe600;" d="M438.857 413.714v-320q0-14.286-9.714-25.428t-24.572-17.286-29.572-9.143-27.572-3-27.572 3-29.572 9.143-24.572 17.286-9.714 25.428 9.714 25.428 24.572 17.286 29.572 9.143 27.572 3q30 0 54.857-11.143v153.429l-219.429-67.715v-202.571q0-14.286-9.714-25.428t-24.571-17.286-29.572-9.143-27.572-3-27.572 3-29.572 9.143-24.572 17.286-9.714 25.428 9.714 25.428 24.572 17.286 29.572 9.143 27.572 3q30 0 54.857-11.143v276.286q0 8.857 5.428 16.143t14 10.143l237.714 73.143q3.428 1.143 8 1.143 11.428 0 19.428-8t8-19.428z" horiz-adv-x="439" />
<glyph unicode="&#xe601;" d="M146.286 118.857v-54.857q0-11.428-8-19.428t-19.428-8h-91.428q-11.428 0-19.428 8t-8 19.428v54.857q0 11.428 8 19.428t19.428 8h91.428q11.428 0 19.428-8t8-19.428zM146.286 265.143v-54.857q0-11.428-8-19.428t-19.428-8h-91.428q-11.428 0-19.428 8t-8 19.428v54.857q0 11.429 8 19.429t19.428 8h91.428q11.428 0 19.428-8t8-19.428zM329.143 118.857v-54.857q0-11.428-8-19.428t-19.428-8h-91.428q-11.428 0-19.428 8t-8 19.428v54.857q0 11.428 8 19.428t19.428 8h91.428q11.428 0 19.428-8t8-19.428zM146.286 411.429v-54.857q0-11.428-8-19.428t-19.428-8h-91.428q-11.428 0-19.428 8t-8 19.428v54.857q0 11.428 8 19.428t19.428 8h91.428q11.428 0 19.428-8t8-19.428zM329.143 265.143v-54.857q0-11.428-8-19.428t-19.428-8h-91.428q-11.428 0-19.428 8t-8 19.428v54.857q0 11.429 8 19.429t19.428 8h91.428q11.428 0 19.428-8t8-19.428zM512 118.857v-54.857q0-11.428-8-19.428t-19.428-8h-91.428q-11.428 0-19.428 8t-8 19.428v54.857q0 11.428 8 19.428t19.428 8h91.428q11.428 0 19.428-8t8-19.428zM329.143 411.429v-54.857q0-11.428-8-19.428t-19.428-8h-91.428q-11.428 0-19.428 8t-8 19.428v54.857q0 11.428 8 19.428t19.428 8h91.428q11.428 0 19.428-8t8-19.428zM512 265.143v-54.857q0-11.428-8-19.428t-19.428-8h-91.428q-11.428 0-19.428 8t-8 19.428v54.857q0 11.429 8 19.429t19.428 8h91.428q11.428 0 19.428-8t8-19.428zM512 411.429v-54.857q0-11.428-8-19.428t-19.428-8h-91.428q-11.428 0-19.428 8t-8 19.428v54.857q0 11.428 8 19.428t19.428 8h91.428q11.428 0 19.428-8t8-19.428z" />
<glyph unicode="&#xe602;" d="M146.286 118.857v-54.857q0-11.428-8-19.428t-19.428-8h-91.428q-11.428 0-19.428 8t-8 19.428v54.857q0 11.428 8 19.428t19.428 8h91.428q11.428 0 19.428-8t8-19.428zM146.286 265.143v-54.857q0-11.428-8-19.428t-19.428-8h-91.428q-11.428 0-19.428 8t-8 19.428v54.857q0 11.429 8 19.429t19.428 8h91.428q11.428 0 19.428-8t8-19.428zM512 118.857v-54.857q0-11.428-8-19.428t-19.428-8h-274.286q-11.428 0-19.428 8t-8 19.428v54.857q0 11.428 8 19.428t19.428 8h274.286q11.428 0 19.428-8t8-19.428zM146.286 411.429v-54.857q0-11.428-8-19.428t-19.428-8h-91.428q-11.428 0-19.428 8t-8 19.428v54.857q0 11.428 8 19.428t19.428 8h91.428q11.428 0 19.428-8t8-19.428zM512 265.143v-54.857q0-11.428-8-19.428t-19.428-8h-274.286q-11.428 0-19.428 8t-8 19.428v54.857q0 11.429 8 19.429t19.428 8h274.286q11.428 0 19.428-8t8-19.428zM512 411.429v-54.857q0-11.428-8-19.428t-19.428-8h-274.286q-11.428 0-19.428 8t-8 19.428v54.857q0 11.428 8 19.428t19.428 8h274.286q11.428 0 19.428-8t8-19.428z" />
<glyph unicode="&#xe603;" d="M36.572 36.572h292.572v219.428h-118.857q-11.429 0-19.429 8t-8 19.429v118.857h-146.286v-365.714zM219.429 292.572h107.429q-2.857 8.286-6.286 11.714l-89.428 89.428q-3.429 3.429-11.714 6.286v-107.428zM365.714 283.429v-256q0-11.428-8-19.428t-19.428-8h-310.857q-11.428 0-19.428 8t-8 19.428v384q0 11.428 8 19.428t19.428 8h182.857q11.429 0 25.143-5.714t21.714-13.714l89.143-89.143q8-8 13.714-21.714t5.714-25.143z" horiz-adv-x="366" />
<glyph unicode="&#xe604;" d="M80 0v432h160v-32h-32v-32h32v-32h-32v-32h32v-32h-32v-32h32v-32h32v32h-32v32h32v32h-32v32h32v32h-32v32h32v32h47.856v-96.144h96.144v-335.856h-336zM272 192h-64v-112h64v112zM256 96.992h-32v32h32v-32zM336 432h3.92l76.080-76.080v-2.928h-80v79.008z" />
<glyph unicode="&#xe605;" d="M536.857 203.429q0-8.857-8.857-18.857l-96-113.143q-12.286-14.572-34.428-24.714t-41-10.143h-310.857q-9.715 0-17.285 3.714t-7.572 12.286q0 8.857 8.857 18.857l96 113.143q12.286 14.572 34.428 24.714t41 10.143h310.857q9.715 0 17.285-3.714t7.572-12.286zM438.857 301.714v-45.714h-237.714q-26.857 0-56.286-13.572t-46.857-34.143l-97.714-114.858q0 1.143-0.143 3.572t-0.143 3.572v274.286q0 26.285 18.857 45.143t45.143 18.857h91.429q26.286 0 45.143-18.857t18.857-45.143v-9.143h155.429q26.286 0 45.143-18.857t18.857-45.143z" horiz-adv-x="549" />
<glyph unicode="&#xe606;" d="M475.428 301.714v-201.143q0-26.286-18.857-45.143t-45.143-18.857h-347.428q-26.285 0-45.143 18.857t-18.857 45.143v274.286q0 26.286 18.857 45.143t45.143 18.857h91.428q26.286 0 45.143-18.857t18.857-45.143v-9.143h192q26.286 0 45.143-18.857t18.857-45.143z" horiz-adv-x="476" />
<glyph unicode="&#xe607;" d="M512 374.857v-310.857q0-12-11.143-16.857-3.714-1.428-7.143-1.428-7.714 0-12.857 5.428l-115.143 115.143v-47.428q0-34-24.143-58.143t-58.143-24.143h-201.143q-34 0-58.143 24.143t-24.143 58.143v201.143q0 34 24.143 58.143t58.143 24.143h201.143q34 0 58.143-24.143t24.143-58.143v-47.143l115.143 114.857q5.143 5.428 12.857 5.428 3.428 0 7.143-1.428 11.143-4.857 11.143-16.857z" />
<glyph unicode="&#xe608;" d="M182.857 310.857q0-22.857-16-38.857t-38.857-16-38.857 16-16 38.857 16 38.857 38.857 16 38.857-16 16-38.857zM475.428 201.143v-128h-402.286v54.857l91.428 91.428 45.714-45.714 146.286 146.286zM502.857 402.286h-457.143q-3.715 0-6.428-2.714t-2.715-6.428v-347.428q0-3.714 2.715-6.428t6.428-2.714h457.143q3.714 0 6.428 2.714t2.714 6.428v347.428q0 3.714-2.714 6.428t-6.428 2.714zM548.572 393.143v-347.428q0-18.857-13.428-32.286t-32.286-13.428h-457.143q-18.857 0-32.285 13.428t-13.428 32.286v347.428q0 18.857 13.428 32.286t32.285 13.428h457.143q18.857 0 32.286-13.428t13.428-32.286z" horiz-adv-x="549" />
<glyph unicode="&#xe609;" d="M438.857 91.429v-36.572q0-7.428-5.428-12.857t-12.857-5.428h-402.286q-7.428 0-12.857 5.428t-5.428 12.857v36.572q0 7.428 5.428 12.857t12.857 5.428h402.286q7.428 0 12.857-5.428t5.428-12.857zM438.857 237.714v-36.572q0-7.428-5.428-12.857t-12.857-5.428h-402.286q-7.428 0-12.857 5.428t-5.428 12.857v36.572q0 7.428 5.428 12.857t12.857 5.429h402.286q7.428 0 12.857-5.428t5.428-12.857zM438.857 384v-36.572q0-7.428-5.428-12.857t-12.857-5.428h-402.286q-7.428 0-12.857 5.428t-5.428 12.857v36.572q0 7.428 5.428 12.857t12.857 5.428h402.286q7.428 0 12.857-5.428t5.428-12.857z" horiz-adv-x="439" />
<glyph unicode="&#xe60a;" d="M109.715 18.286v36.572q0 7.428-5.428 12.857t-12.857 5.428h-36.572q-7.428 0-12.857-5.428t-5.428-12.857v-36.572q0-7.428 5.428-12.857t12.857-5.428h36.572q7.428 0 12.857 5.428t5.428 12.857zM109.715 128v36.572q0 7.428-5.428 12.857t-12.857 5.428h-36.572q-7.428 0-12.857-5.428t-5.428-12.857v-36.572q0-7.428 5.428-12.857t12.857-5.428h36.572q7.428 0 12.857 5.428t5.428 12.857zM109.715 237.714v36.572q0 7.428-5.428 12.857t-12.857 5.429h-36.572q-7.428 0-12.857-5.428t-5.428-12.857v-36.571q0-7.428 5.428-12.857t12.857-5.428h36.572q7.428 0 12.857 5.428t5.428 12.857zM402.286 18.286v146.286q0 7.428-5.428 12.857t-12.857 5.428h-219.429q-7.429 0-12.857-5.428t-5.428-12.857v-146.286q0-7.428 5.428-12.857t12.857-5.428h219.429q7.428 0 12.857 5.428t5.428 12.857zM109.715 347.429v36.572q0 7.428-5.428 12.857t-12.857 5.428h-36.572q-7.428 0-12.857-5.428t-5.428-12.857v-36.572q0-7.428 5.428-12.857t12.857-5.428h36.572q7.428 0 12.857 5.428t5.428 12.857zM512 18.286v36.572q0 7.428-5.428 12.857t-12.857 5.428h-36.572q-7.428 0-12.857-5.428t-5.428-12.857v-36.572q0-7.428 5.428-12.857t12.857-5.428h36.572q7.428 0 12.857 5.428t5.428 12.857zM402.286 237.714v146.286q0 7.428-5.428 12.857t-12.857 5.428h-219.429q-7.429 0-12.857-5.428t-5.428-12.857v-146.286q0-7.428 5.428-12.857t12.857-5.428h219.429q7.428 0 12.857 5.428t5.428 12.857zM512 128v36.572q0 7.428-5.428 12.857t-12.857 5.428h-36.572q-7.428 0-12.857-5.428t-5.428-12.857v-36.572q0-7.428 5.428-12.857t12.857-5.428h36.572q7.428 0 12.857 5.428t5.428 12.857zM512 237.714v36.572q0 7.428-5.428 12.857t-12.857 5.429h-36.572q-7.428 0-12.857-5.428t-5.428-12.857v-36.571q0-7.428 5.428-12.857t12.857-5.428h36.572q7.428 0 12.857 5.428t5.428 12.857zM512 347.429v36.572q0 7.428-5.428 12.857t-12.857 5.428h-36.572q-7.428 0-12.857-5.428t-5.428-12.857v-36.572q0-7.428 5.428-12.857t12.857-5.428h36.572q7.428 0 12.857 5.428t5.428 12.857zM548.572 393.143v-384q0-18.857-13.428-32.286t-32.286-13.428h-457.143q-18.857 0-32.285 13.428t-13.428 32.286v384q0 18.857 13.428 32.286t32.285 13.428h457.143q18.857 0 32.286-13.428t13.428-32.286z" horiz-adv-x="549" />
<glyph unicode="&#xe60b;" d="M176 240h16v16h-16v-16zM176 192h16v16h-16v-16zM176 288h16v16h-16v-16zM176 144h16v16h-16v-16zM176 96h16v16h-16v-16zM208 192h128v16h-128v-16zM208 288h128v16h-128v-16zM335.008 416h-223.008v-384h288v320l-64.992 64zM368 64.992h-224v319.008h160v-47.008h64v-272zM208 144h128v16h-128v-16zM208 240h128v16h-128v-16zM208 96h128v16h-128v-16z" />
</font></defs></svg>