{
    "countries": [{
            "id": 1,
            "name": "Afghanistan",
            "currencyCode": "USD"
        },
        {
            "id": 2,
            "name": "Albania",
            "currencyCode": "USD"
        },
        {
            "id": 3,
            "name": "Algeria",
            "currencyCode": "USD"
        },
        {
            "id": 4,
            "name": "American Samoa",
            "currencyCode": "USD"
        },
        {
            "id": 5,
            "name": "Andorra",
            "currencyCode": "EUR"
        },
        {
            "id": 6,
            "name": "Angola",
            "currencyCode": "USD"
        },
        {
            "id": 7,
            "name": "Anguilla",
            "currencyCode": "USD"
        },
        {
            "id": 9,
            "name": "Antigua and Barbuda",
            "currencyCode": "USD"
        },
        {
            "id": 10,
            "name": "Argentina",
            "currencyCode": "USD"
        },
        {
            "id": 11,
            "name": "Armenia",
            "currencyCode": "USD"
        },
        {
            "id": 12,
            "name": "Aruba",
            "currencyCode": "USD"
        },
        {
            "id": 13,
            "name": "Australia",
            "currencyCode": "AUD"
        },
        {
            "id": 14,
            "name": "Austria",
            "currencyCode": "EUR"
        },
        {
            "id": 15,
            "name": "Azerbaijan",
            "currencyCode": "USD"
        },
        {
            "id": 16,
            "name": "Bahamas",
            "currencyCode": "USD"
        },
        {
            "id": 17,
            "name": "Bahrain",
            "currencyCode": "USD"
        },
        {
            "id": 18,
            "name": "Bangladesh",
            "currencyCode": "USD"
        },
        {
            "id": 19,
            "name": "Barbados",
            "currencyCode": "USD"
        },
        {
            "id": 21,
            "name": "Belgium",
            "currencyCode": "EUR"
        },
        {
            "id": 22,
            "name": "Belize",
            "currencyCode": "USD"
        },
        {
            "id": 23,
            "name": "Benin",
            "currencyCode": "USD"
        },
        {
            "id": 24,
            "name": "Bermuda",
            "currencyCode": "USD"
        },
        {
            "id": 25,
            "name": "Bhutan",
            "currencyCode": "USD"
        },
        {
            "id": 26,
            "name": "Bolivia",
            "currencyCode": "USD"
        },
        {
            "id": 27,
            "name": "Bosnia and Herzegovina",
            "currencyCode": "USD"
        },
        {
            "id": 28,
            "name": "Botswana",
            "currencyCode": "USD"
        },
        {
            "id": 30,
            "name": "Brazil",
            "currencyCode": "USD"
        },
        {
            "id": 31,
            "name": "British Indian Ocean Territory",
            "currencyCode": "USD"
        },
        {
            "id": 32,
            "name": "Brunei Darussalam",
            "currencyCode": "USD"
        },
        {
            "id": 33,
            "name": "Bulgaria",
            "currencyCode": "USD"
        },
        {
            "id": 34,
            "name": "Burkina Faso",
            "currencyCode": "USD"
        },
        {
            "id": 35,
            "name": "Burundi",
            "currencyCode": "USD"
        },
        {
            "id": 36,
            "name": "Cambodia",
            "currencyCode": "USD"
        },
        {
            "id": 37,
            "name": "Cameroon",
            "currencyCode": "USD"
        },
        {
            "id": 38,
            "name": "Canada",
            "currencyCode": "CAD"
        },
        {
            "id": 39,
            "name": "Cape Verde",
            "currencyCode": "USD"
        },
        {
            "id": 40,
            "name": "Cayman Islands",
            "currencyCode": "USD"
        },
        {
            "id": 41,
            "name": "Central African Republic",
            "currencyCode": "USD"
        },
        {
            "id": 42,
            "name": "Chad",
            "currencyCode": "USD"
        },
        {
            "id": 43,
            "name": "Chile",
            "currencyCode": "USD"
        },
        {
            "id": 44,
            "name": "China",
            "currencyCode": "RMB"
        },
        {
            "id": 47,
            "name": "Colombia",
            "currencyCode": "USD"
        },
        {
            "id": 48,
            "name": "Comoros",
            "currencyCode": "USD"
        },
        {
            "id": 49,
            "name": "Congo",
            "currencyCode": "USD"
        },
        {
            "id": 51,
            "name": "Cook Islands",
            "currencyCode": "USD"
        },
        {
            "id": 52,
            "name": "Costa Rica",
            "currencyCode": "USD"
        },
        {
            "id": 53,
            "name": "Cote D\u0027ivoire",
            "currencyCode": "USD"
        },
        {
            "id": 54,
            "name": "Croatia",
            "currencyCode": "USD"
        },
        {
            "id": 56,
            "name": "Cyprus",
            "currencyCode": "EUR"
        },
        {
            "id": 57,
            "name": "Czech Republic",
            "currencyCode": "USD"
        },
        {
            "id": 50,
            "name": "Democratic Republic of the Congo",
            "currencyCode": "USD"
        },
        {
            "id": 58,
            "name": "Denmark",
            "currencyCode": "DKK"
        },
        {
            "id": 59,
            "name": "Djibouti",
            "currencyCode": "USD"
        },
        {
            "id": 60,
            "name": "Dominica",
            "currencyCode": "USD"
        },
        {
            "id": 61,
            "name": "Dominican Republic",
            "currencyCode": "USD"
        },
        {
            "id": 62,
            "name": "East Timor",
            "currencyCode": "USD"
        },
        {
            "id": 63,
            "name": "Ecuador",
            "currencyCode": "USD"
        },
        {
            "id": 64,
            "name": "Egypt",
            "currencyCode": "USD"
        },
        {
            "id": 65,
            "name": "El Salvador",
            "currencyCode": "USD"
        },
        {
            "id": 67,
            "name": "Eritrea",
            "currencyCode": "USD"
        },
        {
            "id": 68,
            "name": "Estonia",
            "currencyCode": "EUR"
        },
        {
            "id": 69,
            "name": "Ethiopia",
            "currencyCode": "USD"
        },
        {
            "id": 70,
            "name": "Falkland Islands (Malvinas)",
            "currencyCode": "USD"
        },
        {
            "id": 71,
            "name": "Faroe Islands",
            "currencyCode": "USD"
        },
        {
            "id": 141,
            "name": "Federated States of Micronesia",
            "currencyCode": "USD"
        },
        {
            "id": 72,
            "name": "Fiji",
            "currencyCode": "USD"
        },
        {
            "id": 73,
            "name": "Finland",
            "currencyCode": "EUR"
        },
        {
            "id": 74,
            "name": "France",
            "currencyCode": "EUR"
        },
        {
            "id": 76,
            "name": "French Guiana",
            "currencyCode": "EUR"
        },
        {
            "id": 77,
            "name": "French Polynesia",
            "currencyCode": "USD"
        },
        {
            "id": 79,
            "name": "Gabon",
            "currencyCode": "USD"
        },
        {
            "id": 80,
            "name": "Gambia",
            "currencyCode": "USD"
        },
        {
            "id": 81,
            "name": "Georgia",
            "currencyCode": "USD"
        },
        {
            "id": 82,
            "name": "Germany",
            "currencyCode": "EUR"
        },
        {
            "id": 83,
            "name": "Ghana",
            "currencyCode": "USD"
        },
        {
            "id": 84,
            "name": "Gibraltar",
            "currencyCode": "USD"
        },
        {
            "id": 85,
            "name": "Greece",
            "currencyCode": "EUR"
        },
        {
            "id": 86,
            "name": "Greenland",
            "currencyCode": "DKK"
        },
        {
            "id": 87,
            "name": "Grenada",
            "currencyCode": "USD"
        },
        {
            "id": 88,
            "name": "Guadeloupe",
            "currencyCode": "EUR"
        },
        {
            "id": 89,
            "name": "Guam",
            "currencyCode": "USD"
        },
        {
            "id": 90,
            "name": "Guatemala",
            "currencyCode": "USD"
        },
        {
            "id": 245,
            "name": "Guernsey",
            "currencyCode": "GBP"
        },
        {
            "id": 91,
            "name": "Guinea",
            "currencyCode": "USD"
        },
        {
            "id": 92,
            "name": "Guinea-Bissau",
            "currencyCode": "USD"
        },
        {
            "id": 93,
            "name": "Guyana",
            "currencyCode": "USD"
        },
        {
            "id": 94,
            "name": "Haiti",
            "currencyCode": "USD"
        },
        {
            "id": 96,
            "name": "Holy See (Vatican City State)",
            "currencyCode": "EUR"
        },
        {
            "id": 97,
            "name": "Honduras",
            "currencyCode": "USD"
        },
        {
            "id": 98,
            "name": "Hong Kong",
            "currencyCode": "HKD"
        },
        {
            "id": 99,
            "name": "Hungary",
            "currencyCode": "USD"
        },
        {
            "id": 100,
            "name": "Iceland",
            "currencyCode": "USD"
        },
        {
            "id": 101,
            "name": "India",
            "currencyCode": "INR"
        },
        {
            "id": 102,
            "name": "Indonesia",
            "currencyCode": "IDR"
        },
        {
            "id": 104,
            "name": "Iraq",
            "currencyCode": "USD"
        },
        {
            "id": 105,
            "name": "Ireland",
            "currencyCode": "EUR"
        },
        {
            "id": 106,
            "name": "Israel",
            "currencyCode": "USD"
        },
        {
            "id": 107,
            "name": "Italy",
            "currencyCode": "EUR"
        },
        {
            "id": 108,
            "name": "Jamaica",
            "currencyCode": "USD"
        },
        {
            "id": 109,
            "name": "Japan",
            "currencyCode": "JPY"
        },
        {
            "id": 244,
            "name": "Jersey",
            "currencyCode": "GBP"
        },
        {
            "id": 110,
            "name": "Jordan",
            "currencyCode": "USD"
        },
        {
            "id": 111,
            "name": "Kazakhstan",
            "currencyCode": "USD"
        },
        {
            "id": 112,
            "name": "Kenya",
            "currencyCode": "USD"
        },
        {
            "id": 113,
            "name": "Kiribati",
            "currencyCode": "AUD"
        },
        {
            "id": 116,
            "name": "Kuwait",
            "currencyCode": "KWD"
        },
        {
            "id": 117,
            "name": "Kyrgyzstan",
            "currencyCode": "USD"
        },
        {
            "id": 118,
            "name": "Lao People\u0027s Democratic Republic",
            "currencyCode": "USD"
        },
        {
            "id": 119,
            "name": "Latvia",
            "currencyCode": "EUR"
        },
        {
            "id": 120,
            "name": "Lebanon",
            "currencyCode": "USD"
        },
        {
            "id": 121,
            "name": "Lesotho",
            "currencyCode": "USD"
        },
        {
            "id": 122,
            "name": "Liberia",
            "currencyCode": "USD"
        },
        {
            "id": 123,
            "name": "Libyan Arab Jamahiriya",
            "currencyCode": "USD"
        },
        {
            "id": 124,
            "name": "Liechtenstein",
            "currencyCode": "CHF"
        },
        {
            "id": 125,
            "name": "Lithuania",
            "currencyCode": "EUR"
        },
        {
            "id": 126,
            "name": "Luxembourg",
            "currencyCode": "EUR"
        },
        {
            "id": 127,
            "name": "Macau",
            "currencyCode": "HKD"
        },
        {
            "id": 129,
            "name": "Madagascar",
            "currencyCode": "USD"
        },
        {
            "id": 130,
            "name": "Malawi",
            "currencyCode": "USD"
        },
        {
            "id": 131,
            "name": "Malaysia",
            "currencyCode": "MYR"
        },
        {
            "id": 132,
            "name": "Maldives",
            "currencyCode": "USD"
        },
        {
            "id": 133,
            "name": "Mali",
            "currencyCode": "USD"
        },
        {
            "id": 134,
            "name": "Malta",
            "currencyCode": "EUR"
        },
        {
            "id": 136,
            "name": "Martinique",
            "currencyCode": "EUR"
        },
        {
            "id": 137,
            "name": "Mauritania",
            "currencyCode": "USD"
        },
        {
            "id": 138,
            "name": "Mauritius",
            "currencyCode": "USD"
        },
        {
            "id": 139,
            "name": "Mayotte",
            "currencyCode": "EUR"
        },
        {
            "id": 140,
            "name": "Mexico",
            "currencyCode": "MXN"
        },
        {
            "id": 143,
            "name": "Monaco",
            "currencyCode": "EUR"
        },
        {
            "id": 144,
            "name": "Mongolia",
            "currencyCode": "USD"
        },
        {
            "id": 243,
            "name": "Montenegro",
            "currencyCode": "EUR"
        },
        {
            "id": 145,
            "name": "Montserrat",
            "currencyCode": "USD"
        },
        {
            "id": 146,
            "name": "Morocco",
            "currencyCode": "USD"
        },
        {
            "id": 147,
            "name": "Mozambique",
            "currencyCode": "USD"
        },
        {
            "id": 148,
            "name": "Myanmar",
            "currencyCode": "USD"
        },
        {
            "id": 149,
            "name": "Namibia",
            "currencyCode": "USD"
        },
        {
            "id": 150,
            "name": "Nauru",
            "currencyCode": "AUD"
        },
        {
            "id": 151,
            "name": "Nepal",
            "currencyCode": "USD"
        },
        {
            "id": 152,
            "name": "Netherlands",
            "currencyCode": "EUR"
        },
        {
            "id": 153,
            "name": "Netherlands Antilles",
            "currencyCode": "USD"
        },
        {
            "id": 154,
            "name": "New Caledonia",
            "currencyCode": "USD"
        },
        {
            "id": 155,
            "name": "New Zealand",
            "currencyCode": "NZD"
        },
        {
            "id": 156,
            "name": "Nicaragua",
            "currencyCode": "USD"
        },
        {
            "id": 157,
            "name": "Niger",
            "currencyCode": "USD"
        },
        {
            "id": 159,
            "name": "Niue",
            "currencyCode": "NZD"
        },
        {
            "id": 161,
            "name": "Northern Mariana Islands",
            "currencyCode": "USD"
        },
        {
            "id": 162,
            "name": "Norway",
            "currencyCode": "NOK"
        },
        {
            "id": 166,
            "name": "Occupied Palestinian Territory",
            "currencyCode": "USD"
        },
        {
            "id": 163,
            "name": "Oman",
            "currencyCode": "USD"
        },
        {
            "id": 164,
            "name": "Pakistan",
            "currencyCode": "USD"
        },
        {
            "id": 165,
            "name": "Palau",
            "currencyCode": "USD"
        },
        {
            "id": 167,
            "name": "Panama",
            "currencyCode": "USD"
        },
        {
            "id": 168,
            "name": "Papua New Guinea",
            "currencyCode": "USD"
        },
        {
            "id": 169,
            "name": "Paraguay",
            "currencyCode": "USD"
        },
        {
            "id": 170,
            "name": "Peru",
            "currencyCode": "USD"
        },
        {
            "id": 171,
            "name": "Philippines",
            "currencyCode": "PHP"
        },
        {
            "id": 173,
            "name": "Poland",
            "currencyCode": "USD"
        },
        {
            "id": 174,
            "name": "Portugal",
            "currencyCode": "EUR"
        },
        {
            "id": 175,
            "name": "Puerto Rico",
            "currencyCode": "USD"
        },
        {
            "id": 176,
            "name": "Qatar",
            "currencyCode": "USD"
        },
        {
            "id": 142,
            "name": "Republic of Moldova",
            "currencyCode": "USD"
        },
        {
            "id": 177,
            "name": "Reunion",
            "currencyCode": "EUR"
        },
        {
            "id": 178,
            "name": "Romania",
            "currencyCode": "USD"
        },
        {
            "id": 179,
            "name": "Russian Federation",
            "currencyCode": "RUB"
        },
        {
            "id": 180,
            "name": "Rwanda",
            "currencyCode": "USD"
        },
        {
            "id": 181,
            "name": "Saint Kitts and Nevis",
            "currencyCode": "USD"
        },
        {
            "id": 182,
            "name": "Saint Lucia",
            "currencyCode": "USD"
        },
        {
            "id": 183,
            "name": "Saint Vincent and The Grenadines",
            "currencyCode": "USD"
        },
        {
            "id": 184,
            "name": "Samoa",
            "currencyCode": "USD"
        },
        {
            "id": 185,
            "name": "San Marino",
            "currencyCode": "EUR"
        },
        {
            "id": 186,
            "name": "Sao Tome And Principe",
            "currencyCode": "USD"
        },
        {
            "id": 187,
            "name": "Saudi Arabia",
            "currencyCode": "SAR"
        },
        {
            "id": 188,
            "name": "Senegal",
            "currencyCode": "USD"
        },
        {
            "id": 242,
            "name": "Serbia",
            "currencyCode": "USD"
        },
        {
            "id": 189,
            "name": "Seychelles",
            "currencyCode": "USD"
        },
        {
            "id": 190,
            "name": "Sierra Leone",
            "currencyCode": "USD"
        },
        {
            "id": 191,
            "name": "Singapore",
            "currencyCode": "SGD"
        },
        {
            "id": 192,
            "name": "Slovakia",
            "currencyCode": "EUR"
        },
        {
            "id": 193,
            "name": "Slovenia",
            "currencyCode": "EUR"
        },
        {
            "id": 194,
            "name": "Solomon Islands",
            "currencyCode": "USD"
        },
        {
            "id": 195,
            "name": "Somalia",
            "currencyCode": "USD"
        },
        {
            "id": 196,
            "name": "South Africa",
            "currencyCode": "USD"
        },
        {
            "id": 115,
            "name": "South Korea",
            "currencyCode": "KRW"
        },
        {
            "id": 198,
            "name": "Spain",
            "currencyCode": "EUR"
        },
        {
            "id": 199,
            "name": "Sri Lanka",
            "currencyCode": "USD"
        },
        {
            "id": 201,
            "name": "St. Pierre And Miquelon",
            "currencyCode": "EUR"
        },
        {
            "id": 203,
            "name": "Suriname",
            "currencyCode": "USD"
        },
        {
            "id": 204,
            "name": "Svalbard and Jan Mayen Islands",
            "currencyCode": "NOK"
        },
        {
            "id": 205,
            "name": "Swaziland",
            "currencyCode": "USD"
        },
        {
            "id": 206,
            "name": "Sweden",
            "currencyCode": "SEK"
        },
        {
            "id": 207,
            "name": "Switzerland",
            "currencyCode": "CHF"
        },
        {
            "id": 241,
            "name": "Tahiti",
            "currencyCode": "USD"
        },
        {
            "id": 209,
            "name": "Taiwan",
            "currencyCode": "TWD"
        },
        {
            "id": 210,
            "name": "Tajikistan",
            "currencyCode": "USD"
        },
        {
            "id": 211,
            "name": "Tanzania, United Republic of",
            "currencyCode": "USD"
        },
        {
            "id": 212,
            "name": "Thailand",
            "currencyCode": "THB"
        },
        {
            "id": 128,
            "name": "The Former Yugoslav Republic of Macedonia",
            "currencyCode": "USD"
        },
        {
            "id": 213,
            "name": "Togo",
            "currencyCode": "USD"
        },
        {
            "id": 214,
            "name": "Tokelau",
            "currencyCode": "NZD"
        },
        {
            "id": 215,
            "name": "Tonga",
            "currencyCode": "USD"
        },
        {
            "id": 216,
            "name": "Trinidad and Tobago",
            "currencyCode": "USD"
        },
        {
            "id": 217,
            "name": "Tunisia",
            "currencyCode": "USD"
        },
        {
            "id": 218,
            "name": "Turkey",
            "currencyCode": "TRY"
        },
        {
            "id": 219,
            "name": "Turkmenistan",
            "currencyCode": "USD"
        },
        {
            "id": 220,
            "name": "Turks and Caicos Islands",
            "currencyCode": "USD"
        },
        {
            "id": 221,
            "name": "Tuvalu",
            "currencyCode": "AUD"
        },
        {
            "id": 222,
            "name": "Uganda",
            "currencyCode": "USD"
        },
        {
            "id": 223,
            "name": "Ukraine",
            "currencyCode": "USD"
        },
        {
            "id": 224,
            "name": "United Arab Emirates",
            "currencyCode": "USD"
        },
        {
            "id": 225,
            "name": "United Kingdom",
            "currencyCode": "GBP"
        },
        {
            "id": 226,
            "name": "United States",
            "currencyCode": "USD"
        },
        {
            "id": 228,
            "name": "Uruguay",
            "currencyCode": "USD"
        },
        {
            "id": 229,
            "name": "Uzbekistan",
            "currencyCode": "USD"
        },
        {
            "id": 231,
            "name": "Venezuela",
            "currencyCode": "USD"
        },
        {
            "id": 232,
            "name": "Vietnam",
            "currencyCode": "USD"
        },
        {
            "id": 233,
            "name": "Virgin Islands (British)",
            "currencyCode": "USD"
        },
        {
            "id": 234,
            "name": "Virgin Islands (U.S.)",
            "currencyCode": "USD"
        },
        {
            "id": 237,
            "name": "Yemen",
            "currencyCode": "USD"
        },
        {
            "id": 239,
            "name": "Zambia",
            "currencyCode": "USD"
        }
    ],
    "currencies": [{
            "code": "AUD",
            "name": "AUD - Australian Dollar (AU$)"
        },
        {
            "code": "GBP",
            "name": "GBP - British Pound (£)"
        },
        {
            "code": "CAD",
            "name": "CAD - Canadian Dollar (CA$)"
        },
        {
            "code": "RMB",
            "name": "RMB - Chinese Yuan Renminbi (CN¥)"
        },
        {
            "code": "DKK",
            "name": "DKK - Danish Krone (DKkr)"
        },
        {
            "code": "EUR",
            "name": "EUR - Euro (€)"
        },
        {
            "code": "HKD",
            "name": "HKD - Hong Kong Dollar (HK$)"
        },
        {
            "code": "INR",
            "name": "INR - Indian Rupee (INR)"
        },
        {
            "code": "IDR",
            "name": "IDR - Indonesian Rupiah (Rp)"
        },
        {
            "code": "JPY",
            "name": "JPY - Japanese Yen (JP¥)"
        },
        {
            "code": "KRW",
            "name": "KRW - South Korean Won (₩)"
        },
        {
            "code": "KWD",
            "name": "KWD - Kuwaiti Dinar (KWD)"
        },
        {
            "code": "MYR",
            "name": "MYR - Malaysian Ringgit (RM)"
        },
        {
            "code": "MXN",
            "name": "MXN - Mexican Nuevo Peso (Mex$)"
        },
        {
            "code": "NZD",
            "name": "NZD - New Zealand Dollar (NZ$)"
        },
        {
            "code": "NOK",
            "name": "NOK - Norwegian Krone (NOkr)"
        },
        {
            "code": "PHP",
            "name": "PHP - Philippine Peso (PH₱)"
        },
        {
            "code": "RUB",
            "name": "RUB - Russian Ruble (руб)"
        },
        {
            "code": "SAR",
            "name": "SAR - Saudi Riyal (SR)"
        },
        {
            "code": "SGD",
            "name": "SGD - Singaporean Dollar (SG$)"
        },
        {
            "code": "SEK",
            "name": "SEK - Swedish Krona (SEkr)"
        },
        {
            "code": "CHF",
            "name": "CHF - Swiss Franc (CHF)"
        },
        {
            "code": "TWD",
            "name": "TWD - New Taiwanese Dollar (NT$)"
        },
        {
            "code": "TRY",
            "name": "TRY - Turkish Lira (TRY)"
        },
        {
            "code": "THB",
            "name": "THB - Thai Baht (TH฿)"
        },
        {
            "code": "USD",
            "name": "USD - US Dollar (US$)"
        }
    ],
    "shopperSitePreference": {
        "selectedCountry": 232,
        "selectedCurrency": "USD",
        "selectedLanguage": 1
    }
}